Miles O’Reilly - Walkthrough
…
library(lubridate)

Attaching package: 'lubridate'

The following objects are masked from 'package:base':

    date, intersect, setdiff, union

# We still start of with a simple table that visualizes the data in a table. Unlike the VA Analysis, we will be using tidyverse rather than DT package. 
housesales <- ggplot2::txhousing
housesales

# A tibble: 8,602 × 9
   city     year month sales   volume median listings inventory  date
   <chr>   <int> <int> <dbl>    <dbl>  <dbl>    <dbl>     <dbl> <dbl>
 1 Abilene  2000     1    72  5380000  71400      701       6.3 2000 
 2 Abilene  2000     2    98  6505000  58700      746       6.6 2000.
 3 Abilene  2000     3   130  9285000  58100      784       6.8 2000.
 4 Abilene  2000     4    98  9730000  68600      785       6.9 2000.
 5 Abilene  2000     5   141 10590000  67300      794       6.8 2000.
 6 Abilene  2000     6   156 13910000  66900      780       6.6 2000.
 7 Abilene  2000     7   152 12635000  73500      742       6.2 2000.
 8 Abilene  2000     8   131 10710000  75000      765       6.4 2001.
 9 Abilene  2000     9   104  7615000  64500      771       6.5 2001.
10 Abilene  2000    10   101  7040000  59300      764       6.6 2001.
# … with 8,592 more rows

# Let's filter returns from a specific year. In this case, we will use the 'filter()' function in order to retrieve all sales from 2015.

filter(housesales, year == 2015)

# A tibble: 322 × 9
   city      year month sales   volume median listings inventory  date
   <chr>    <int> <int> <dbl>    <dbl>  <dbl>    <dbl>     <dbl> <dbl>
 1 Abilene   2015     1   158 23486998 134100      801       4.4 2015 
 2 Abilene   2015     2   151 19834263 126500      767       4.1 2015.
 3 Abilene   2015     3   198 31869437 136800      821       4.4 2015.
 4 Abilene   2015     4   201 28301159 129600      891       4.7 2015.
 5 Abilene   2015     5   199 31385757 144700      919       4.8 2015.
 6 Abilene   2015     6   260 41396230 141500      965       5   2015.
 7 Abilene   2015     7   268 45845730 148700      986       5   2016.
 8 Amarillo  2015     1   204 33188726 138500     1120       4.3 2015 
 9 Amarillo  2015     2   188 34355428 149400     1084       4.2 2015.
10 Amarillo  2015     3   317 53603130 140900     1051       3.9 2015.
# … with 312 more rows

# 2) And again but beginning in 2010. In order to capture this range, we use the 'between()' function within our filter and set the start as 2010 and the end as 2015. 

housesales %>%
  filter(between(year,2010,2015))

# A tibble: 3,082 × 9
   city     year month sales   volume median listings inventory  date
   <chr>   <int> <int> <dbl>    <dbl>  <dbl>    <dbl>     <dbl> <dbl>
 1 Abilene  2010     1    73  9130783 112200      868       6.4 2010 
 2 Abilene  2010     2    93 10372904  98300      830       6.1 2010.
 3 Abilene  2010     3   133 16517713 114000      854       6.3 2010.
 4 Abilene  2010     4   161 18788002 103600      859       6.3 2010.
 5 Abilene  2010     5   200 22804393  99300      914       6.5 2010.
 6 Abilene  2010     6   169 23216943 127900      932       6.7 2010.
 7 Abilene  2010     7   159 22363123 127300      915       6.6 2010.
 8 Abilene  2010     8   144 17504580 122000      936       6.7 2011.
 9 Abilene  2010     9   116 15475763 121300      899       6.5 2011.
10 Abilene  2010    10   111 14570529 111900      863       6.4 2011.
# … with 3,072 more rows

# We can also filter categorical variables, in this case, the names of cities. We use the same code as we did with years, but substitute the city name in the place of the year.

housesales %>%
  filter(city == "Houston")

# A tibble: 187 × 9
   city     year month sales    volume median listings inventory  date
   <chr>   <int> <int> <dbl>     <dbl>  <dbl>    <dbl>     <dbl> <dbl>
 1 Houston  2000     1  2653 381805283 102500    16768       3.9 2000 
 2 Houston  2000     2  3687 536456803 110300    16933       3.9 2000.
 3 Houston  2000     3  4733 709112659 109500    17058       3.9 2000.
 4 Houston  2000     4  4364 649712779 110800    17716       4.1 2000.
 5 Houston  2000     5  5215 809459231 112700    18461       4.2 2000.
 6 Houston  2000     6  5655 887396592 117900    18959       4.3 2000.
 7 Houston  2000     7  5009 770284031 118300    19391       4.4 2000.
 8 Houston  2000     8  5134 800032008 114600    19534       4.5 2001.
 9 Houston  2000     9  4262 671716256 115900    19558       4.5 2001.
10 Houston  2000    10  4068 621419904 112400    19752       4.5 2001.
# … with 177 more rows
…
